<svg width="97" height="83" viewBox="0 0 97 83" fill="none" xmlns="http://www.w3.org/2000/svg">
<path d="M72.7618 43.1163C72.577 42.5694 72.3749 42.031 72.1514 41.5013C70.9133 38.5274 69.1286 35.813 66.8901 33.4994C66.4903 33.0687 66.082 32.6854 65.6564 32.2978C63.7186 30.5464 61.5255 29.1014 59.1528 28.0126C58.6327 27.7714 58.104 27.5518 57.5667 27.3494C54.9383 26.3486 52.1626 25.7912 49.3523 25.6999C49.0643 25.6999 48.7806 25.6784 48.4926 25.6784C48.2046 25.6784 47.9166 25.6784 47.6329 25.6999C44.8226 25.7908 42.0467 26.3482 39.4185 27.3494C38.8812 27.5518 38.3482 27.78 37.8281 28.0083C35.4565 29.1058 33.265 30.558 31.3288 32.315C30.899 32.7026 30.4949 33.1032 30.0951 33.5166C28.0106 35.6622 26.3159 38.1559 25.0874 40.8854C24.8553 41.4108 24.6576 41.9406 24.4383 42.4832C23.4926 45.0494 22.9643 47.7511 22.8737 50.4851C22.8737 50.7737 22.8737 51.0579 22.8737 51.3465C22.8737 51.635 22.8737 51.9236 22.8737 52.2078H74.1115C74.1115 51.9236 74.1115 51.635 74.1115 51.3465C74.1115 51.0579 74.1115 50.7737 74.1115 50.4851C74.0251 47.9758 73.5704 45.4929 72.7618 43.1163V43.1163ZM69.1167 50.5024H53.2123C52.4538 49.5061 51.4008 48.7752 50.2034 48.4136C49.7391 47.0225 42.6166 33.887 42.6166 33.887C42.6166 33.887 44.3618 45.9458 45.0366 49.3223C44.5799 49.6559 44.1731 50.0532 43.8287 50.5024H24.6317C24.7199 47.994 25.2045 45.5156 26.0675 43.1594L27.8126 43.8829C28.0061 43.3403 28.2425 42.8062 28.4574 42.2851L26.738 41.5616C27.8762 39.028 29.444 36.7111 31.3718 34.7139L33.9509 37.2979C34.3549 36.8672 34.7805 36.5055 35.2404 36.1308L32.6398 33.5468C34.415 31.9524 36.4171 30.6315 38.5803 29.6276L39.2981 31.3503C39.814 31.1091 40.3427 30.8852 40.8843 30.6828L40.1707 28.9601C42.59 28.0438 45.1426 27.5302 47.7274 27.4398V31.2513C48.0111 31.2513 48.2991 31.2297 48.5871 31.2297C48.8751 31.2297 49.1588 31.2297 49.4468 31.2513V27.4398C52.0316 27.5307 54.5842 28.0442 57.0036 28.9601L56.29 30.6828C56.8273 30.8852 57.3561 31.1135 57.8762 31.3503L58.5897 29.6276C60.7535 30.6305 62.7558 31.9514 64.5302 33.5468L61.9511 36.1308C62.381 36.5055 62.8108 36.8888 63.2407 37.2979L65.8198 34.7139C67.8475 36.8872 69.4564 39.4176 70.5653 42.1774L68.8459 42.901C69.0651 43.4307 69.2757 43.969 69.4434 44.5203L71.1929 43.7925C71.9204 45.9644 72.3315 48.2301 72.4136 50.5196L69.1167 50.5024ZM89.8009 4.04135H68.3601V0.647644H43.803V3.23168C43.7386 3.22743 43.6739 3.22743 43.6095 3.23168H32.0036C31.6616 3.23168 31.3336 3.3678 31.0918 3.6101C30.8499 3.8524 30.7141 4.18104 30.7141 4.5237C30.7141 4.86637 30.8499 5.19499 31.0918 5.43729C31.3336 5.67959 31.6616 5.81572 32.0036 5.81572H43.6095C43.6744 5.81281 43.739 5.80561 43.803 5.79418V8.37822H68.3601V5.77265H89.8009C91.1884 5.77493 92.5183 6.32846 93.499 7.31183C94.4797 8.2952 95.0311 9.62812 95.0322 11.0182V54.5378C95.0311 55.9275 94.4796 57.26 93.4988 58.2427C92.518 59.2253 91.188 59.7779 89.8009 59.7791H84.7159V19.6317C84.7147 17.7847 83.9822 16.0136 82.6791 14.7072C81.3759 13.4007 79.6087 12.6657 77.7652 12.6634H19.22C17.3761 12.6657 15.6084 13.4006 14.3046 14.7069C13.0008 16.0132 12.2673 17.7843 12.265 19.6317V21.2769H7.21005C5.36659 21.2792 3.59932 22.0142 2.29619 23.3206C0.993063 24.6271 0.260537 26.3982 0.259399 28.2452V71.7647C0.260538 73.6113 0.993203 75.382 2.29645 76.6877C3.5997 77.9935 5.36698 78.7275 7.21005 78.7287H28.6509V82.1224H53.208V79.5383C53.2724 79.5426 53.3371 79.5426 53.4015 79.5383H65.0073C65.3494 79.5383 65.6774 79.4022 65.9192 79.1599C66.161 78.9176 66.2969 78.589 66.2969 78.2463C66.2969 77.9037 66.161 77.575 65.9192 77.3327C65.6774 77.0904 65.3494 76.9543 65.0073 76.9543H53.4015C53.3371 76.95 53.2724 76.95 53.208 76.9543V74.3703H28.6509V76.9543H7.21005C5.82299 76.9532 4.49302 76.4006 3.51222 75.4179C2.53142 74.4352 1.97993 73.1027 1.97879 71.713V28.2366C1.97993 26.8464 2.53128 25.5135 3.51196 24.5301C4.49264 23.5468 5.8226 22.9932 7.21005 22.991H12.265V63.1426C12.2673 64.9896 13.0009 66.7603 14.3048 68.0659C15.6088 69.3715 17.3765 70.1055 19.22 70.1066H77.7652C79.6083 70.1055 81.3755 69.3714 82.6788 68.0656C83.982 66.7599 84.7147 64.9892 84.7159 63.1426V61.4931H89.8009C91.644 61.492 93.4113 60.7579 94.7145 59.4522C96.0178 58.1464 96.7504 56.3758 96.7516 54.5291V11.0096C96.7504 9.16263 96.0179 7.39153 94.7148 6.08509C93.4117 4.77865 91.6444 4.04363 89.8009 4.04135V4.04135ZM66.6407 6.64692H45.5224V2.37034H66.6407V6.64692ZM30.3702 76.1145H51.4886V80.3911H30.3702V76.1145ZM82.9965 63.1426C82.9953 64.5323 82.4438 65.8648 81.463 66.8475C80.4822 67.8302 79.1523 68.3828 77.7652 68.3839H19.22C17.8325 68.3828 16.5022 67.8303 15.5207 66.8478C14.5392 65.8652 13.9867 64.5327 13.9844 63.1426V19.6231C13.9855 18.2322 14.5375 16.8986 15.5191 15.9152C16.5008 14.9317 17.8318 14.3786 19.22 14.3775H77.7652C79.1527 14.3798 80.4826 14.9333 81.4633 15.9167C82.444 16.9 82.9953 18.233 82.9965 19.6231V63.1426Z" fill="white"/>
</svg>
