<svg width="102" height="86" viewBox="0 0 102 86" fill="none" xmlns="http://www.w3.org/2000/svg">
<path d="M42.49 34.1001H1.69276C1.50052 34.1007 1.31006 34.0633 1.13228 33.9901C0.954509 33.9169 0.792924 33.8094 0.656787 33.6736C0.52065 33.5379 0.41263 33.3766 0.338931 33.1991C0.265232 33.0215 0.227294 32.8312 0.227295 32.6389C0.228429 32.251 0.383324 31.8793 0.658029 31.6054C0.932734 31.3315 1.30484 31.1777 1.69276 31.1777H42.49C46.1514 31.1732 49.6615 29.7167 52.2505 27.1277C54.8395 24.5387 56.296 21.0286 56.3005 17.3672C56.296 13.7059 54.8395 10.1957 52.2505 7.60676C49.6615 5.01778 46.1514 3.56129 42.49 3.55676C38.8287 3.56129 35.3186 5.01778 32.7296 7.60676C30.1406 10.1957 28.6841 13.7059 28.6796 17.3672C28.6796 17.7548 28.5256 18.1264 28.2516 18.4005C27.9776 18.6745 27.6059 18.8284 27.2184 18.8284C26.8309 18.8284 26.4592 18.6745 26.1852 18.4005C25.9112 18.1264 25.7572 17.7548 25.7572 17.3672C25.7629 12.9312 27.5276 8.67838 30.6644 5.5416C33.8012 2.40481 38.054 0.640069 42.49 0.634399C46.9261 0.640069 51.1789 2.40481 54.3157 5.5416C57.4525 8.67838 59.2172 12.9312 59.2229 17.3672C59.2172 21.8033 57.4525 26.0561 54.3157 29.1929C51.1789 32.3297 46.9261 34.0944 42.49 34.1001Z" fill="white"/>
<path d="M64.4163 85.357C62.2182 85.3623 60.0408 84.9319 58.0101 84.0905C55.9794 83.249 54.1356 82.0134 52.5855 80.455C51.0294 78.9075 49.7951 77.0672 48.9538 75.0404C48.1124 73.0135 47.6807 70.8401 47.6835 68.6456C47.6835 68.258 47.8374 67.8864 48.1114 67.6124C48.3854 67.3383 48.7571 67.1844 49.1446 67.1844C49.5299 67.1878 49.8983 67.3432 50.1695 67.6169C50.4408 67.8905 50.593 68.2603 50.5929 68.6456C50.5876 70.46 50.9423 72.2574 51.6367 73.9337C52.331 75.61 53.3512 77.1319 54.638 78.411C55.9171 79.6978 57.439 80.718 59.1153 81.4123C60.7916 82.1067 62.589 82.4615 64.4034 82.4561C68.067 82.4549 71.5805 80.9999 74.1722 78.4106C76.764 75.8212 78.2222 72.3092 78.2268 68.6456C78.2223 64.9842 76.7658 61.4741 74.1768 58.8851C71.5878 56.2961 68.0777 54.8396 64.4163 54.8351H1.69276C1.50052 54.8356 1.31006 54.7983 1.13228 54.7251C0.954509 54.6519 0.792924 54.5444 0.656787 54.4086C0.52065 54.2729 0.41263 54.1116 0.338931 53.9341C0.265232 53.7565 0.227294 53.5661 0.227295 53.3739C0.228429 52.986 0.383324 52.6143 0.658029 52.3404C0.932734 52.0665 1.30484 51.9127 1.69276 51.9127H64.4163C68.8524 51.9184 73.1052 53.6831 76.2419 56.8199C79.3787 59.9567 81.1435 64.2095 81.1491 68.6456C81.1378 73.0779 79.3706 77.3252 76.2344 80.4574C73.0982 83.5895 68.8487 85.3513 64.4163 85.357Z" fill="white"/>
<path d="M85.0356 46.6465H1.69276C1.30484 46.6465 0.932734 46.4927 0.658029 46.2188C0.383324 45.9449 0.228429 45.5732 0.227295 45.1853C0.227294 44.9931 0.265232 44.8027 0.338931 44.6252C0.41263 44.4476 0.52065 44.2863 0.656787 44.1506C0.792924 44.0149 0.954509 43.9073 1.13228 43.8341C1.31006 43.761 1.50052 43.7236 1.69276 43.7241H85.0356C88.697 43.7196 92.2071 42.2631 94.7961 39.6741C97.3851 37.0851 98.8416 33.575 98.8461 29.9137C98.8427 26.2519 97.3866 22.7412 94.7973 20.1519C92.2081 17.5627 88.6973 16.1066 85.0356 16.1032C81.3739 16.1066 77.8631 17.5627 75.2739 20.1519C72.6847 22.7412 71.2285 26.2519 71.2251 29.9137C71.224 30.3016 71.0691 30.6732 70.7944 30.9471C70.5197 31.221 70.1476 31.3748 69.7597 31.3748C69.3721 31.3748 69.0005 31.2209 68.7265 30.9469C68.4524 30.6728 68.2985 30.3012 68.2985 29.9137C68.303 25.4761 70.0679 21.2216 73.2057 18.0837C76.3435 14.9459 80.598 13.1811 85.0356 13.1765C89.4725 13.1822 93.7259 14.9475 96.8628 18.0852C99.9997 21.223 101.764 25.4768 101.768 29.9137C101.763 34.3497 99.9981 38.6025 96.8613 41.7393C93.7245 44.8761 89.4717 46.6408 85.0356 46.6465Z" fill="white"/>
</svg>
